v 0.4375 -0.4375 0.125
v 0.4375 -0.4375 -0.375
v -0.4375 -0.4375 -0.375
v -0.4375 -0.4375 0.125
v 0.4375 0.4375 0.125
v 0.4375 0.4375 -0.375
v -0.4375 0.4375 -0.375
v -0.4375 0.4375 0.125
v 0 0 0.375
v 0 0 -0.125
vt 1 0.75
vt 1 0.25
vt 0 0.25
vt 0 0.75
vt 1 0.75
vt 1 0.25
vt 0 0.25
vt 0 0.75
vt 0 0.25
vt 0 0.75
vt 1 0.75
vt 1 0.25
vt 1 0.75
vt 1 0.25
vt 0 0.25
vt 0 0.75
vt 0.5 0.5
vt 0 0
vt 0 1
vt 1 0
vt 1 1
vt 0.5 0.5
vt 1 0
vt 0 0
vt 1 1
vt 0 1
vn 0 1 0
vn 1 0 0
vn -1 0 0
vn 0 -1 0
vn 0.4961 0 0.8682
vn 0 -0.4961 0.8682
vn 0 0.4961 0.8682
vn -0.4961 0 0.8682
vn 0 0.4961 -0.8682
vn -0.4961 0 -0.8682
vn 0 -0.4961 -0.8682
vn 0.4961 0 -0.8682
g 1
s off
f 5/1/1 6/2/1 7/3/1 8/4/1
f 1/5/2 2/6/2 6/7/2 5/8/2
f 3/9/3 4/10/3 8/11/3 7/12/3
f 4/13/4 3/14/4 2/15/4 1/16/4
g 2
f 9/17/5 1/18/5 5/19/5
f 4/20/6 1/18/6 9/17/6
f 9/17/7 5/19/7 8/21/7
f 4/20/8 9/17/8 8/21/8
g 3
f 10/22/9 2/23/9 3/24/9
f 10/22/10 6/25/10 2/23/10
f 7/26/11 6/25/11 10/22/11
f 7/26/12 10/22/12 3/24/12
